Hospital Preparedness in the U.S.
…
view(hospital_data)

STEP 1: 
Clean the hospital data
* group by statecountyfips
* summarise to add up all_beds
* that will leave us with a dataframe of two columns (statecountyfips, sum_all_beds)

hospital_data %>%
group_by(statecountyfips) %>% 
summarise(all_beds = n())

## # A tibble: 2,493 x 2
##    statecountyfips all_beds
##              <dbl>    <int>
##  1            1001        1
##  2            1003        3
##  3            1005        1
##  4            1007        1
##  5            1009        1
##  6            1011        1
##  7            1013        1
##  8            1015        2
##  9            1019        1
## 10            1021        1
## #  with 2,483 more rows
…
